<svg width="19" height="20" viewBox="0 0 19 20" fill="none" xmlns="http://www.w3.org/2000/svg">
<path d="M18.75 9.75C18.745 12.2349 17.7557 14.6166 15.9987 16.3737C14.2416 18.1307 11.8599 19.12 9.375 19.125H1.47188C1.08151 19.125 0.707132 18.9699 0.431102 18.6939C0.155072 18.4179 0 18.0435 0 17.6531V9.75C3.70503e-08 7.2636 0.98772 4.87903 2.74587 3.12087C4.50403 1.36272 6.8886 0.375 9.375 0.375C11.8614 0.375 14.246 1.36272 16.0041 3.12087C17.7623 4.87903 18.75 7.2636 18.75 9.75Z" fill="#242529"/>
</svg>
